<?xml version="1.0" encoding="UTF-8" standalone="no"?>
<!-- Created with Inkscape (http://www.inkscape.org/) -->

<svg
   xmlns:dc="http://purl.org/dc/elements/1.1/"
   xmlns:cc="http://creativecommons.org/ns#"
   xmlns:rdf="http://www.w3.org/1999/02/22-rdf-syntax-ns#"
   xmlns:svg="http://www.w3.org/2000/svg"
   xmlns="http://www.w3.org/2000/svg"
   xmlns:sodipodi="http://sodipodi.sourceforge.net/DTD/sodipodi-0.dtd"
   xmlns:inkscape="http://www.inkscape.org/namespaces/inkscape"
   width="45.30624mm"
   height="44.880974mm"
   viewBox="0 0 160.53392 159.02707"
   id="svg2"
   version="1.1"
   inkscape:version="0.91 r13725"
   sodipodi:docname="logo.svg">
  <defs
     id="defs4" />
  <sodipodi:namedview
     id="base"
     pagecolor="#ffffff"
     bordercolor="#666666"
     borderopacity="1.0"
     inkscape:pageopacity="0.0"
     inkscape:pageshadow="2"
     inkscape:zoom="1.4142136"
     inkscape:cx="71.145623"
     inkscape:cy="141.09228"
     inkscape:document-units="px"
     inkscape:current-layer="layer1"
     showgrid="false"
     showguides="false"
     inkscape:window-width="1366"
     inkscape:window-height="710"
     inkscape:window-x="0"
     inkscape:window-y="0"
     inkscape:window-maximized="1"
     fit-margin-top="10"
     fit-margin-left="10"
     fit-margin-right="10"
     fit-margin-bottom="10" />
  <metadata
     id="metadata7">
    <rdf:RDF>
      <cc:Work
         rdf:about="">
        <dc:format>image/svg+xml</dc:format>
        <dc:type
           rdf:resource="http://purl.org/dc/dcmitype/StillImage" />
        <dc:title />
      </cc:Work>
    </rdf:RDF>
  </metadata>
  <g
     inkscape:label="Layer 1"
     inkscape:groupmode="layer"
     id="layer1"
     transform="translate(19.100852,26.224695)">
    <flowRoot
       xml:space="preserve"
       id="flowRoot4149"
       style="font-style:normal;font-weight:normal;font-size:40px;line-height:125%;font-family:sans-serif;letter-spacing:0px;word-spacing:0px;fill:#000000;fill-opacity:1;stroke:none;stroke-width:1px;stroke-linecap:butt;stroke-linejoin:miter;stroke-opacity:1"><flowRegion
         id="flowRegion4151"><rect
           id="rect4153"
           width="94.75"
           height="40.25"
           x="197.5"
           y="228.3622" /></flowRegion><flowPara
         id="flowPara4155">CTEC</flowPara></flowRoot>    <text
       xml:space="preserve"
       style="font-style:normal;font-weight:normal;font-size:40px;line-height:125%;font-family:sans-serif;letter-spacing:0px;word-spacing:0px;opacity:0.95999995;fill:#3a7996;fill-opacity:1;stroke:none;stroke-width:1px;stroke-linecap:butt;stroke-linejoin:miter;stroke-opacity:1"
       x="14.372494"
       y="95.069305"
       id="text4157"
       sodipodi:linespacing="125%"><tspan
         sodipodi:role="line"
         id="tspan4159"
         x="14.372494"
         y="95.069305"
         style="font-style:normal;font-variant:normal;font-weight:600;font-stretch:normal;font-size:30px;line-height:125%;font-family:Montserrat;-inkscape-font-specification:'Montserrat Semi-Bold';text-align:start;letter-spacing:3.46000004px;writing-mode:lr-tb;text-anchor:start;fill:#3a7996;fill-opacity:1">CTEC</tspan></text>
    <path
       style="opacity:0.95999995;fill:#3a7996;fill-opacity:1;fill-rule:evenodd;stroke:none;stroke-width:1.11281431px;stroke-linecap:butt;stroke-linejoin:miter;stroke-opacity:1"
       d="m 101.29601,9.2861608 0,24.4726612 3.10156,-0.798829 0,-23.6738322 -3.10156,0 z m 3.10156,25.2636762 -3.10156,1.578125 0,35.72461 3.10156,0 0,-37.302735 z"
       id="rect3417-2"
       inkscape:connector-curvature="0" />
    <path
       style="fill:#3a7996;fill-opacity:1;fill-rule:evenodd;stroke:none;stroke-width:1px;stroke-linecap:butt;stroke-linejoin:miter;stroke-opacity:1"
       d="m 95.610462,12.086947 0,23.134765 3.392578,-0.873047 0,-22.261718 -3.392578,0 z m 3.392578,25.208984 -3.392578,1.726562 0,32.886719 3.392578,0 0,-34.613281 z"
       id="rect3419-8"
       inkscape:connector-curvature="0" />
    <path
       style="fill:#3a7996;fill-opacity:1;fill-rule:evenodd;stroke:none;stroke-width:1px;stroke-linecap:butt;stroke-linejoin:miter;stroke-opacity:1"
       d="m 61.538198,9.9443708 0,20.0175762 5.357422,-2.898438 0,-17.1191382 -5.357422,0 z m 5.357422,43.6874982 -5.357422,2.724609 0,15.552734 5.357422,0 0,-18.277343 z"
       id="rect3421-9"
       inkscape:connector-curvature="0" />
    <path
       style="fill:#3a7996;fill-opacity:1;fill-rule:evenodd;stroke:none;stroke-width:1px;stroke-linecap:butt;stroke-linejoin:miter;stroke-opacity:1"
       d="m 69.038198,10.836951 0,31.224605 2.322265,-0.599609 0,-30.624996 -2.322265,0 z m 2.322265,40.523433 -2.322265,1.181641 0,19.367187 2.322265,0 0,-20.548828 z"
       id="rect3423-36"
       inkscape:connector-curvature="0" />
    <path
       style="fill:#3a7996;fill-opacity:1;fill-rule:evenodd;stroke:none;stroke-width:1px;stroke-linecap:butt;stroke-linejoin:miter;stroke-opacity:1"
       d="m 73.538198,13.516634 0,27.384766 2.322265,-0.597657 0,-26.787109 -2.322265,0 z m 2.322265,35.552735 -2.322265,1.18164 0,21.658203 2.322265,0 0,-22.839843 z"
       id="rect3425-8"
       inkscape:connector-curvature="0" />
    <path
       style="fill:#3a7996;fill-opacity:1;fill-rule:evenodd;stroke:none;stroke-width:1px;stroke-linecap:butt;stroke-linejoin:miter;stroke-opacity:1"
       d="m 78.64562,12.444369 0,27.142578 5.537109,-1.423828 0,-25.71875 -5.537109,0 z m 5.537109,32.390624 -5.537109,2.81836 0,24.255859 5.537109,0 0,-27.074219 z"
       id="rect3427-0"
       inkscape:connector-curvature="0" />
    <path
       style="fill:#3a7996;fill-opacity:1;fill-rule:evenodd;stroke:none;stroke-width:1px;stroke-linecap:butt;stroke-linejoin:miter;stroke-opacity:1"
       d="m 85.610462,9.5869508 0,28.2089802 3.21484,-0.828125 0,-27.3808552 -3.21484,0 z m 3.21484,32.8867142 -3.21484,1.636719 0,27.798828 3.21484,0 0,-29.435547 z"
       id="rect3429-2"
       inkscape:connector-curvature="0" />
    <path
       style="fill:#3a7996;fill-opacity:1;fill-rule:evenodd;stroke:none;stroke-width:1px;stroke-linecap:butt;stroke-linejoin:miter;stroke-opacity:1"
       d="m 90.432732,20.659212 0,15.894531 3.21289,-0.826171 0,-15.06836 -3.21289,0 z m 3.21289,19.361328 -3.21289,1.634766 0,30.253906 3.21289,0 0,-31.888672 z"
       id="rect3431-1"
       inkscape:connector-curvature="0" />
    <path
       style="fill:#3a7996;fill-opacity:1;fill-rule:evenodd;stroke:none;stroke-width:1px;stroke-linecap:butt;stroke-linejoin:miter;stroke-opacity:1"
       d="m 57.003041,9.9443708 0,22.4726542 1.964844,-1.0625 0,-21.4101542 -1.964844,0 z m 1.964844,47.7207012 -1.964844,1 0,13.24414 1.964844,0 0,-14.24414 z"
       id="rect3433-0"
       inkscape:connector-curvature="0" />
    <path
       style="fill:#3a7996;fill-opacity:1;fill-rule:evenodd;stroke:none;stroke-width:1px;stroke-linecap:butt;stroke-linejoin:miter;stroke-opacity:1"
       d="m 52.182729,16.372103 0,18.652344 2.855469,-1.544922 0,-17.107422 -2.855469,0 z m 2.855469,28.224609 -2.855469,0.763672 0,26.548828 2.855469,0 0,-27.3125 z"
       id="rect3435-5"
       inkscape:connector-curvature="0" />
    <path
       style="fill:#3a7996;fill-opacity:1;fill-rule:evenodd;stroke:none;stroke-width:1px;stroke-linecap:butt;stroke-linejoin:miter;stroke-opacity:1"
       d="m 46.825307,15.659212 0,22.265625 3.392578,-1.835937 0,-20.429688 -3.392578,0 z m 3.392578,30.228516 -3.392578,0.908203 0,25.113281 3.392578,0 0,-26.021484 z"
       id="rect3437-1"
       inkscape:connector-curvature="0" />
    <path
       style="fill:#3a7996;fill-opacity:1;fill-rule:evenodd;stroke:none;stroke-width:1px;stroke-linecap:butt;stroke-linejoin:miter;stroke-opacity:1"
       d="m 42.907338,10.772491 -1.470703,30.068362 2.386719,-1.292969 1.402344,-28.662113 -2.31836,-0.11328 z m 0.517578,36.933596 -2.355468,0.63086 -1.146485,23.435546 2.320313,0.113282 1.18164,-24.179688 z"
       id="rect3423-3-1"
       inkscape:connector-curvature="0" />
    <path
       style="fill:#3a7996;fill-opacity:1;fill-rule:evenodd;stroke:none;stroke-width:1px;stroke-linecap:butt;stroke-linejoin:miter;stroke-opacity:1"
       d="M 38.89562,9.1748408 35.104604,44.266634 38.360463,42.504915 41.946401,9.3135108 38.89562,9.1748408 Z m -1.263672,40.0820282 -3.15625,0.845703 -2.310547,21.384765 3.050781,0.138672 2.416016,-22.36914 z"
       id="rect3433-6-0"
       inkscape:connector-curvature="0" />
    <path
       style="fill:#3a7996;fill-opacity:1;fill-rule:evenodd;stroke:none;stroke-width:1px;stroke-linecap:butt;stroke-linejoin:miter;stroke-opacity:1"
       d="m 32.553823,16.381869 -3.84961,31.349609 3.082031,-1.667969 3.601563,-29.333984 -2.833984,-0.347656 z m -1.371094,34.603515 -2.976563,0.796875 -2.421875,19.720703 2.835938,0.347657 2.5625,-20.865235 z"
       id="rect3435-7-8"
       inkscape:connector-curvature="0" />
    <path
       style="fill:#3a7996;fill-opacity:1;fill-rule:evenodd;stroke:none;stroke-width:1px;stroke-linecap:butt;stroke-linejoin:miter;stroke-opacity:1"
       d="m 27.387807,16.088896 -7.771484,36.558597 3.919921,-2.11914 7.169922,-33.734377 -3.318359,-0.70508 z m -4.416016,37.093754 -3.677734,0.986328 -3.601563,16.941406 3.31836,0.705078 3.960937,-18.632812 z"
       id="rect3437-5-5"
       inkscape:connector-curvature="0" />
  </g>
</svg>
