<?xml version="1.0" encoding="UTF-8" standalone="no"?>
<!-- Created with Inkscape (http://www.inkscape.org/) -->

<svg
   xmlns:dc="http://purl.org/dc/elements/1.1/"
   xmlns:cc="http://creativecommons.org/ns#"
   xmlns:rdf="http://www.w3.org/1999/02/22-rdf-syntax-ns#"
   xmlns:svg="http://www.w3.org/2000/svg"
   xmlns="http://www.w3.org/2000/svg"
   xmlns:sodipodi="http://sodipodi.sourceforge.net/DTD/sodipodi-0.dtd"
   xmlns:inkscape="http://www.inkscape.org/namespaces/inkscape"
   width="45.30624mm"
   height="44.880974mm"
   viewBox="0 0 160.53392 159.02707"
   id="svg2"
   version="1.1"
   inkscape:version="0.91 r13725"
   sodipodi:docname="logo_longo.svg">
  <defs
     id="defs4" />
  <sodipodi:namedview
     id="base"
     pagecolor="#ffffff"
     bordercolor="#666666"
     borderopacity="1.0"
     inkscape:pageopacity="0.0"
     inkscape:pageshadow="2"
     inkscape:zoom="0.50000001"
     inkscape:cx="231.16416"
     inkscape:cy="-79.99468"
     inkscape:document-units="px"
     inkscape:current-layer="layer1"
     showgrid="false"
     showguides="false"
     inkscape:window-width="1366"
     inkscape:window-height="710"
     inkscape:window-x="0"
     inkscape:window-y="0"
     inkscape:window-maximized="1"
     fit-margin-top="10"
     fit-margin-left="10"
     fit-margin-right="10"
     fit-margin-bottom="10" />
  <metadata
     id="metadata7">
    <rdf:RDF>
      <cc:Work
         rdf:about="">
        <dc:format>image/svg+xml</dc:format>
        <dc:type
           rdf:resource="http://purl.org/dc/dcmitype/StillImage" />
        <dc:title></dc:title>
      </cc:Work>
    </rdf:RDF>
  </metadata>
  <g
     inkscape:label="Layer 1"
     inkscape:groupmode="layer"
     id="layer1"
     transform="translate(19.100852,26.224695)">
    <flowRoot
       xml:space="preserve"
       id="flowRoot4149"
       style="font-style:normal;font-weight:normal;font-size:40px;line-height:125%;font-family:sans-serif;letter-spacing:0px;word-spacing:0px;fill:#000000;fill-opacity:1;stroke:none;stroke-width:1px;stroke-linecap:butt;stroke-linejoin:miter;stroke-opacity:1"><flowRegion
         id="flowRegion4151"><rect
           id="rect4153"
           width="94.75"
           height="40.25"
           x="197.5"
           y="228.3622" /></flowRegion><flowPara
         id="flowPara4155">CTEC</flowPara></flowRoot>    <g
       id="g5119"
       style="fill:#3a7996;fill-opacity:1"
       transform="matrix(1.25,0,0,-1.25,-862.98524,112.75212)"
       inkscape:export-xdpi="299.92731"
       inkscape:export-ydpi="299.92731">
      <path
         inkscape:connector-curvature="0"
         id="rect3417-2-8"
         d="m 606.3926,75.595944 0,-19.578129 2.48125,0.639063 0,18.939066 -2.48125,0 z m 2.48125,-20.210941 -2.48125,-1.2625 0,-28.579688 2.48125,0 0,29.842188 z"
         style="opacity:0.95999995;fill:#3a7996;fill-opacity:1;fill-rule:evenodd;stroke:none;stroke-width:1.11281431px;stroke-linecap:butt;stroke-linejoin:miter;stroke-opacity:1" />
      <path
         inkscape:connector-curvature="0"
         id="rect3419-8-2"
         d="m 601.84416,73.355315 0,-18.507812 2.71407,0.698438 0,17.809374 -2.71407,0 z m 2.71407,-20.167187 -2.71407,-1.38125 0,-26.309375 2.71407,0 0,27.690625 z"
         style="fill:#3a7996;fill-opacity:1;fill-rule:evenodd;stroke:none;stroke-width:1px;stroke-linecap:butt;stroke-linejoin:miter;stroke-opacity:1" />
      <path
         inkscape:connector-curvature="0"
         id="rect3421-9-9"
         d="m 574.58636,75.069376 0,-16.014061 4.28593,2.318751 0,13.69531 -4.28593,0 z m 4.28593,-34.949998 -4.28593,-2.179688 0,-12.442187 4.28593,0 0,14.621875 z"
         style="fill:#3a7996;fill-opacity:1;fill-rule:evenodd;stroke:none;stroke-width:1px;stroke-linecap:butt;stroke-linejoin:miter;stroke-opacity:1" />
      <path
         inkscape:connector-curvature="0"
         id="rect3423-36-9"
         d="m 580.58636,74.355312 0,-24.979684 1.8578,0.479687 0,24.499997 -1.8578,0 z m 1.8578,-32.418746 -1.8578,-0.945313 0,-15.49375 1.8578,0 0,16.439063 z"
         style="fill:#3a7996;fill-opacity:1;fill-rule:evenodd;stroke:none;stroke-width:1px;stroke-linecap:butt;stroke-linejoin:miter;stroke-opacity:1" />
      <path
         inkscape:connector-curvature="0"
         id="rect3425-8-6"
         d="m 584.18636,72.211565 0,-21.907812 1.85781,0.478125 0,21.429687 -1.85781,0 z m 1.85781,-28.442187 -1.85781,-0.945312 0,-17.326563 1.85781,0 0,18.271875 z"
         style="fill:#3a7996;fill-opacity:1;fill-rule:evenodd;stroke:none;stroke-width:1px;stroke-linecap:butt;stroke-linejoin:miter;stroke-opacity:1" />
      <path
         inkscape:connector-curvature="0"
         id="rect3427-0-0"
         d="m 588.27229,73.069377 0,-21.714062 4.4297,1.139063 0,20.574999 -4.4297,0 z m 4.4297,-25.912499 -4.4297,-2.254688 0,-19.404687 4.4297,0 0,21.659375 z"
         style="fill:#3a7996;fill-opacity:1;fill-rule:evenodd;stroke:none;stroke-width:1px;stroke-linecap:butt;stroke-linejoin:miter;stroke-opacity:1" />
      <path
         inkscape:connector-curvature="0"
         id="rect3429-2-2"
         d="m 593.84416,75.355312 0,-22.567184 2.57188,0.6625 0,21.904684 -2.57188,0 z m 2.57188,-26.309371 -2.57188,-1.309375 0,-22.239063 2.57188,0 0,23.548438 z"
         style="fill:#3a7996;fill-opacity:1;fill-rule:evenodd;stroke:none;stroke-width:1px;stroke-linecap:butt;stroke-linejoin:miter;stroke-opacity:1" />
      <path
         inkscape:connector-curvature="0"
         id="rect3431-1-7"
         d="m 597.70199,66.497503 0,-12.715625 2.5703,0.660937 0,12.054688 -2.5703,0 z m 2.5703,-15.489062 -2.5703,-1.307813 0,-24.203125 2.5703,0 0,25.510938 z"
         style="fill:#3a7996;fill-opacity:1;fill-rule:evenodd;stroke:none;stroke-width:1px;stroke-linecap:butt;stroke-linejoin:miter;stroke-opacity:1" />
      <path
         inkscape:connector-curvature="0"
         id="rect3433-0-6"
         d="m 570.95823,75.069376 0,-17.978123 1.57188,0.85 0,17.128123 -1.57188,0 z m 1.57188,-38.176561 -1.57188,-0.8 0,-10.595312 1.57188,0 0,11.395312 z"
         style="fill:#3a7996;fill-opacity:1;fill-rule:evenodd;stroke:none;stroke-width:1px;stroke-linecap:butt;stroke-linejoin:miter;stroke-opacity:1" />
      <path
         inkscape:connector-curvature="0"
         id="rect3435-5-1"
         d="m 567.10199,69.92719 0,-14.921875 2.28436,1.235938 0,13.685937 -2.28436,0 z m 2.28436,-22.579687 -2.28436,-0.610937 0,-21.239063 2.28436,0 0,21.85 z"
         style="fill:#3a7996;fill-opacity:1;fill-rule:evenodd;stroke:none;stroke-width:1px;stroke-linecap:butt;stroke-linejoin:miter;stroke-opacity:1" />
      <path
         inkscape:connector-curvature="0"
         id="rect3437-1-3"
         d="m 562.81605,70.497503 0,-17.8125 2.71406,1.46875 0,16.34375 -2.71406,0 z m 2.71406,-24.182813 -2.71406,-0.726562 0,-20.090625 2.71406,0 0,20.817187 z"
         style="fill:#3a7996;fill-opacity:1;fill-rule:evenodd;stroke:none;stroke-width:1px;stroke-linecap:butt;stroke-linejoin:miter;stroke-opacity:1" />
      <path
         inkscape:connector-curvature="0"
         id="rect3423-3-1-2"
         d="m 559.68166,74.40688 -1.17656,-24.05469 1.90939,1.034376 1.12186,22.92969 -1.85469,0.09062 z m 0.41407,-29.546877 -1.88437,-0.504688 -0.91719,-18.748437 1.85626,-0.09063 0.9453,19.34375 z"
         style="fill:#3a7996;fill-opacity:1;fill-rule:evenodd;stroke:none;stroke-width:1px;stroke-linecap:butt;stroke-linejoin:miter;stroke-opacity:1" />
      <path
         inkscape:connector-curvature="0"
         id="rect3433-6-0-1"
         d="m 556.4723,75.685 -3.03282,-28.073434 2.60469,1.409375 2.86875,26.553123 -2.44062,0.110936 z m -1.01094,-32.065622 -2.525,-0.676563 -1.84843,-17.107812 2.44061,-0.110937 1.93282,17.895312 z"
         style="fill:#3a7996;fill-opacity:1;fill-rule:evenodd;stroke:none;stroke-width:1px;stroke-linecap:butt;stroke-linejoin:miter;stroke-opacity:1" />
      <path
         inkscape:connector-curvature="0"
         id="rect3435-7-8-5"
         d="m 551.39886,69.919377 -3.0797,-25.079687 2.46564,1.334376 2.88125,23.467187 -2.26719,0.278124 z m -1.09687,-27.682811 -2.38125,-0.6375 -1.9375,-15.776563 2.26874,-0.278125 2.05001,16.692188 z"
         style="fill:#3a7996;fill-opacity:1;fill-rule:evenodd;stroke:none;stroke-width:1px;stroke-linecap:butt;stroke-linejoin:miter;stroke-opacity:1" />
      <path
         inkscape:connector-curvature="0"
         id="rect3437-5-5-9"
         d="m 547.26604,70.153756 -6.21719,-29.246878 3.13594,1.695312 5.73595,26.987502 -2.6547,0.564064 z m -3.5328,-29.675003 -2.9422,-0.789063 -2.88124,-13.553124 2.65468,-0.564063 3.16876,14.90625 z"
         style="fill:#3a7996;fill-opacity:1;fill-rule:evenodd;stroke:none;stroke-width:1px;stroke-linecap:butt;stroke-linejoin:miter;stroke-opacity:1" />
    </g>
    <text
       xml:space="preserve"
       style="font-style:normal;font-variant:normal;font-weight:500;font-stretch:normal;font-size:27.5px;line-height:100%;font-family:Montserrat;-inkscape-font-specification:'Montserrat, Medium';text-align:start;letter-spacing:0.22px;word-spacing:0px;writing-mode:lr-tb;text-anchor:start;fill:#3a7996;fill-opacity:1;stroke:none;stroke-width:1px;stroke-linecap:butt;stroke-linejoin:miter;stroke-opacity:1;"
       x="-89.81237"
       y="52.059208"
       id="text5136"
       sodipodi:linespacing="100%"
       inkscape:export-xdpi="299.92731"
       inkscape:export-ydpi="299.92731"><tspan
         sodipodi:role="line"
         id="tspan5138"
         x="-89.81237"
         y="52.059208">CENTRO TECNOLÓGICO</tspan><tspan
         sodipodi:role="line"
         x="-89.81237"
         y="79.559212"
         id="tspan5140">DE ENSEÑANZA DE LA CIENCIA</tspan></text>
  </g>
</svg>
